{
  "images" : [
    {
      "idiom" : "universal",
      "scale" : "1x"
    },
    {
      "idiom" : "universal",
      "scale" : "2x"
    },
    {
      "idiom" : "universal",
      "filename" : "chicagoland-hearing-aid-centers_hearing-aids-chicago_hearing-loss_hearing-aid-stores-niles_hearing-aid-store-wheaton_hearing-aid-stores-near-me_hearing-aid-store-park-ridge.jpg",
      "scale" : "3x"
    }
  ],
  "info" : {
    "version" : 1,
    "author" : "xcode"
  }
}